%!PS-Adobe-2.0 EPSF-1.2
%%Creator: MATLAB, The Mathworks, Inc. Version 7.9.0.529 (R2009b). Operating System: Linux 3.13.0-35-generic #62-Ubuntu SMP Fri Aug 15 01:58:42 UTC 2014 x86_64.
%%Title: figs/pathsSet3.eps
%%CreationDate: 09/29/2014  21:53:02
%%DocumentNeededFonts: Helvetica
%%DocumentProcessColors: Cyan Magenta Yellow Black
%%Extensions: CMYK
%%Pages: 1
%%BoundingBox:   147   280   456   516
%%EndComments

%%BeginProlog
% MathWorks dictionary
/MathWorks 160 dict begin
% definition operators
/bdef {bind def} bind def
/ldef {load def} bind def
/xdef {exch def} bdef
/xstore {exch store} bdef
% operator abbreviations
/c  /clip ldef
/cc /concat ldef
/cp /closepath ldef
/gr /grestore ldef
/gs /gsave ldef
/mt /moveto ldef
/np /newpath ldef
/cm /currentmatrix ldef
/sm /setmatrix ldef
/rm /rmoveto ldef
/rl /rlineto ldef
/s {show newpath} bdef
/sc {setcmykcolor} bdef
/sr /setrgbcolor ldef
/sg /setgray ldef
/w /setlinewidth ldef
/j /setlinejoin ldef
/cap /setlinecap ldef
/rc {rectclip} bdef
/rf {rectfill} bdef
% page state control
/pgsv () def
/bpage {/pgsv save def} bdef
/epage {pgsv restore} bdef
/bplot /gsave ldef
/eplot {stroke grestore} bdef
% orientation switch
/portraitMode 0 def /landscapeMode 1 def /rotateMode 2 def
% coordinate system mappings
/dpi2point 0 def
% font control
/FontSize 0 def
/FMS {/FontSize xstore findfont [FontSize 0 0 FontSize neg 0 0]
  makefont setfont} bdef
/reencode {exch dup where {pop load} {pop StandardEncoding} ifelse
  exch dup 3 1 roll findfont dup length dict begin
  { 1 index /FID ne {def}{pop pop} ifelse } forall
  /Encoding exch def currentdict end definefont pop} bdef
/isroman {findfont /CharStrings get /Agrave known} bdef
/FMSR {3 1 roll 1 index dup isroman {reencode} {pop pop} ifelse
  exch FMS} bdef
/csm {1 dpi2point div -1 dpi2point div scale neg translate
 dup landscapeMode eq {pop -90 rotate}
  {rotateMode eq {90 rotate} if} ifelse} bdef
% line types: solid, dotted, dashed, dotdash
/SO { [] 0 setdash } bdef
/DO { [.5 dpi2point mul 4 dpi2point mul] 0 setdash } bdef
/DA { [6 dpi2point mul] 0 setdash } bdef
/DD { [.5 dpi2point mul 4 dpi2point mul 6 dpi2point mul 4
  dpi2point mul] 0 setdash } bdef
% macros for lines and objects
/L {lineto stroke} bdef
/MP {3 1 roll moveto 1 sub {rlineto} repeat} bdef
/AP {{rlineto} repeat} bdef
/PDlw -1 def
/W {/PDlw currentlinewidth def setlinewidth} def
/PP {closepath eofill} bdef
/DP {closepath stroke} bdef
/MR {4 -2 roll moveto dup  0 exch rlineto exch 0 rlineto
  neg 0 exch rlineto closepath} bdef
/FR {MR stroke} bdef
/PR {MR fill} bdef
/L1i {{currentfile picstr readhexstring pop} image} bdef
/tMatrix matrix def
/MakeOval {newpath tMatrix currentmatrix pop translate scale
0 0 1 0 360 arc tMatrix setmatrix} bdef
/FO {MakeOval stroke} bdef
/PO {MakeOval fill} bdef
/PD {currentlinewidth 2 div 0 360 arc fill
   PDlw -1 eq not {PDlw w /PDlw -1 def} if} def
/FA {newpath tMatrix currentmatrix pop translate scale
  0 0 1 5 -2 roll arc tMatrix setmatrix stroke} bdef
/PA {newpath tMatrix currentmatrix pop	translate 0 0 moveto scale
  0 0 1 5 -2 roll arc closepath tMatrix setmatrix fill} bdef
/FAn {newpath tMatrix currentmatrix pop translate scale
  0 0 1 5 -2 roll arcn tMatrix setmatrix stroke} bdef
/PAn {newpath tMatrix currentmatrix pop translate 0 0 moveto scale
  0 0 1 5 -2 roll arcn closepath tMatrix setmatrix fill} bdef
/vradius 0 def /hradius 0 def /lry 0 def
/lrx 0 def /uly 0 def /ulx 0 def /rad 0 def
/MRR {/vradius xdef /hradius xdef /lry xdef /lrx xdef /uly xdef
  /ulx xdef newpath tMatrix currentmatrix pop ulx hradius add uly
  vradius add translate hradius vradius scale 0 0 1 180 270 arc 
  tMatrix setmatrix lrx hradius sub uly vradius add translate
  hradius vradius scale 0 0 1 270 360 arc tMatrix setmatrix
  lrx hradius sub lry vradius sub translate hradius vradius scale
  0 0 1 0 90 arc tMatrix setmatrix ulx hradius add lry vradius sub
  translate hradius vradius scale 0 0 1 90 180 arc tMatrix setmatrix
  closepath} bdef
/FRR {MRR stroke } bdef
/PRR {MRR fill } bdef
/MlrRR {/lry xdef /lrx xdef /uly xdef /ulx xdef /rad lry uly sub 2 div def
  newpath tMatrix currentmatrix pop ulx rad add uly rad add translate
  rad rad scale 0 0 1 90 270 arc tMatrix setmatrix lrx rad sub lry rad
  sub translate rad rad scale 0 0 1 270 90 arc tMatrix setmatrix
  closepath} bdef
/FlrRR {MlrRR stroke } bdef
/PlrRR {MlrRR fill } bdef
/MtbRR {/lry xdef /lrx xdef /uly xdef /ulx xdef /rad lrx ulx sub 2 div def
  newpath tMatrix currentmatrix pop ulx rad add uly rad add translate
  rad rad scale 0 0 1 180 360 arc tMatrix setmatrix lrx rad sub lry rad
  sub translate rad rad scale 0 0 1 0 180 arc tMatrix setmatrix
  closepath} bdef
/FtbRR {MtbRR stroke } bdef
/PtbRR {MtbRR fill } bdef
/stri 6 array def /dtri 6 array def
/smat 6 array def /dmat 6 array def
/tmat1 6 array def /tmat2 6 array def /dif 3 array def
/asub {/ind2 exch def /ind1 exch def dup dup
  ind1 get exch ind2 get sub exch } bdef
/tri_to_matrix {
  2 0 asub 3 1 asub 4 0 asub 5 1 asub
  dup 0 get exch 1 get 7 -1 roll astore } bdef
/compute_transform {
  dmat dtri tri_to_matrix tmat1 invertmatrix 
  smat stri tri_to_matrix tmat2 concatmatrix } bdef
/ds {stri astore pop} bdef
/dt {dtri astore pop} bdef
/db {2 copy /cols xdef /rows xdef mul dup 3 mul string
  currentfile exch readhexstring pop
  dup 0 3 index getinterval /rbmap xdef
  dup 2 index dup getinterval /gbmap xdef
  1 index dup 2 mul exch getinterval /bbmap xdef pop pop}bdef
/it {gs np dtri aload pop moveto lineto lineto cp c
  cols rows 8 compute_transform 
  rbmap gbmap bbmap true 3 colorimage gr}bdef
/il {newpath moveto lineto stroke}bdef
currentdict end def
%%EndProlog

%%BeginSetup
MathWorks begin

0 cap

end
%%EndSetup

%%Page: 1 1
%%BeginPageSetup
%%PageBoundingBox:   147   280   456   516
MathWorks begin
bpage
%%EndPageSetup

%%BeginObject: obj1
bplot

/dpi2point 12 def
portraitMode 1512 6912 csm

  257   716  3703  2835 MR c np
86 dict begin %Colortable dictionary
/c0 { 0.000000 0.000000 0.000000 sr} bdef
/c1 { 1.000000 1.000000 1.000000 sr} bdef
/c2 { 0.900000 0.000000 0.000000 sr} bdef
/c3 { 0.000000 0.820000 0.000000 sr} bdef
/c4 { 0.000000 0.000000 0.800000 sr} bdef
/c5 { 0.910000 0.820000 0.320000 sr} bdef
/c6 { 1.000000 0.260000 0.820000 sr} bdef
/c7 { 0.000000 0.820000 0.820000 sr} bdef
c0
1 j
1 sg
   0    0 4321 4321 PR
6 w
0 2640 3348 0 0 -2640 562 3404 4 MP
PP
-3348 0 0 2640 3348 0 0 -2640 562 3404 5 MP stroke
4 w
DO
0 sg
 954 3404 mt  954  764 L
 954  764 mt  954  764 L
1399 3404 mt 1399  764 L
1399  764 mt 1399  764 L
1845 3404 mt 1845  764 L
1845  764 mt 1845  764 L
2291 3404 mt 2291  764 L
2291  764 mt 2291  764 L
2736 3404 mt 2736  764 L
2736  764 mt 2736  764 L
3182 3404 mt 3182  764 L
3182  764 mt 3182  764 L
3628 3404 mt 3628  764 L
3628  764 mt 3628  764 L
 562 3377 mt 3910 3377 L
3910 3377 mt 3910 3377 L
 562 2931 mt 3910 2931 L
3910 2931 mt 3910 2931 L
 562 2485 mt 3910 2485 L
3910 2485 mt 3910 2485 L
 562 2039 mt 3910 2039 L
3910 2039 mt 3910 2039 L
 562 1594 mt 3910 1594 L
3910 1594 mt 3910 1594 L
 562 1148 mt 3910 1148 L
3910 1148 mt 3910 1148 L
SO
6 w
 562 3404 mt 3910 3404 L
 562 3404 mt  562  764 L
 954 3404 mt  954 3371 L
%%IncludeResource: font Helvetica
/Helvetica /ISOLatin1Encoding 120 FMSR

 784 3550 mt 
(-100) s
1399 3404 mt 1399 3371 L
1366 3550 mt 
(0) s
1845 3404 mt 1845 3371 L
1745 3550 mt 
(100) s
2291 3404 mt 2291 3371 L
2191 3550 mt 
(200) s
2736 3404 mt 2736 3371 L
2636 3550 mt 
(300) s
3182 3404 mt 3182 3371 L
3082 3550 mt 
(400) s
3628 3404 mt 3628 3371 L
3528 3550 mt 
(500) s
 562 3377 mt  595 3377 L
 257 3421 mt 
(-300) s
 562 2931 mt  595 2931 L
 257 2975 mt 
(-200) s
 562 2485 mt  595 2485 L
 257 2529 mt 
(-100) s
 562 2039 mt  595 2039 L
 461 2083 mt 
(0) s
 562 1594 mt  595 1594 L
 327 1638 mt 
(100) s
 562 1148 mt  595 1148 L
 327 1192 mt 
(200) s
gs 562 764 3349 2641 MR c np
24 w
-3 1 -2 0 -3 1 -3 1 -3 1 -2 1 -3 1 -3 0 
-3 1 -2 1 -3 1 -3 1 -2 1 -3 1 -3 2 -2 1 
-3 1 -3 1 -2 1 -3 1 -2 2 -3 1 -2 1 -3 2 
-2 1 -3 1 -2 2 -3 1 -2 2 -3 1 -2 2 -3 1 
-2 2 -2 2 -3 1 -2 2 -2 2 -3 1 -2 2 -2 2 
-3 1 -2 2 -2 2 -2 2 -2 2 -3 2 -2 2 -2 1 
-2 2 -2 2 -2 2 -2 2 -2 2 -2 2 -2 3 -2 2 
-2 2 -2 2 -2 2 -2 2 -2 2 -1 3 -2 2 -2 2 
-2 2 -2 3 -1 2 -2 2 -2 3 -1 2 -2 2 -1 3 
-2 2 -1 3 -2 2 -1 2 -2 3 -1 2 -2 3 -1 2 
-2 3 -1 2 -1 3 -1 3 -2 2 -1 3 -1 2 -1 3 
-1 3 -2 2 -1 3 -1 3 -1 2 -1 3 -1 3 -1 2 
-1 3 -1 3 0 2 2064 2805 100 MP stroke
-1 3 -1 3 -1 3 -1 2 0 3 -1 3 -1 3 0 3 
-1 2 0 3 -1 3 -1 3 0 3 -1 3 0 5 -1 3 
0 6 -1 3 0 8 -1 3 0 29 1 3 0 11 1 3 
0 6 1 2 0 3 1 3 0 3 1 3 0 2 1 3 
0 3 1 3 1 3 0 2 1 3 1 3 1 3 0 3 
1 2 1 3 1 3 1 2 1 3 1 3 1 3 1 2 
1 3 1 3 1 2 1 3 1 2 2 3 1 3 1 2 
1 3 2 2 1 3 1 2 2 3 1 2 1 3 2 2 
1 3 2 2 1 3 2 2 1 3 2 2 2 2 1 3 
2 2 2 2 1 3 2 2 2 2 2 2 2 3 1 2 
2 2 2 2 2 2 2 2 2 3 2 2 2 2 2 2 
2 2 2 2 2 2 2 2 2 2 2 2 3 1 2 2 
2 2 2 2 2 2 1973 2505 100 MP stroke
3 2 2 1 2 2 2 2 3 1 2 2 2 2 3 1 
2 2 3 1 2 2 2 2 3 1 2 1 3 2 2 1 
3 2 2 1 3 1 3 2 2 1 3 1 2 1 3 2 
2 1 3 1 3 1 2 1 3 1 3 1 2 1 3 1 
3 1 3 1 2 1 3 1 3 1 2 1 3 0 3 1 
3 1 3 0 2 1 3 1 3 0 3 1 3 1 2 0 
3 1 3 0 3 0 3 1 3 0 2 1 3 0 3 0 
3 0 3 1 3 0 3 0 2 0 3 0 3 0 3 0 
3 0 3 0 3 0 2 0 3 0 3 0 3 0 3 0 
3 0 3 -1 2 0 3 0 3 -1 3 0 3 0 3 -1 
3 0 2 -1 3 0 3 -1 3 0 3 -1 2 -1 3 0 
3 -1 3 -1 3 0 2 -1 3 -1 3 -1 3 -1 2 -1 
3 0 3 -1 2 -1 1705 2461 100 MP stroke
3 -1 3 -1 2 -1 3 -1 3 -2 2 -1 3 -1 3 -1 
2 -1 3 -2 2 -1 3 -1 2 -1 3 -2 2 -1 3 -2 
2 -1 3 -1 2 -2 3 -1 2 -2 3 -1 2 -2 2 -2 
3 -1 2 -2 3 -2 2 -1 2 -2 2 -2 3 -2 2 -1 
2 -2 2 -2 2 -2 3 -2 2 -2 2 -2 2 -1 2 -2 
2 -2 2 -2 2 -2 2 -3 2 -2 2 -2 2 -2 2 -2 
2 -2 2 -2 2 -2 1 -3 2 -2 2 -2 2 -2 1 -3 
2 -2 2 -2 2 -3 1 -2 2 -2 1 -3 2 -2 1 -3 
2 -2 1 -3 2 -2 1 -2 2 -3 1 -2 2 -3 1 -3 
1 -2 1 -3 2 -2 1 -3 1 -2 1 -3 1 -3 2 -2 
1 -3 1 -3 1 -2 1 -3 1 -3 1 -2 1 -3 0 -3 
1 -3 1 -2 1 -3 1 -3 0 -3 1 -2 1 -3 1 -3 
0 -3 1 -3 0 -2 1528 2667 100 MP stroke
1 -3 0 -3 1 -3 0 -3 1 -2 0 -3 1 -3 0 -6 
1 -3 0 -11 1 -3 0 -23 -1 -3 0 -11 -1 -3 0 -6 
-1 -3 0 -5 -1 -3 0 -3 -1 -3 0 -3 -1 -2 -1 -3 
0 -3 -1 -3 -1 -3 0 -2 -1 -3 -1 -3 -1 -3 0 -2 
-1 -3 -1 -3 -1 -3 -1 -2 -1 -3 -1 -3 -1 -2 -1 -3 
-1 -3 -1 -2 -1 -3 -1 -3 -2 -2 -1 -3 -1 -2 -1 -3 
-2 -2 -1 -3 -1 -3 -2 -2 -1 -3 -2 -2 -1 -3 -1 -2 
-2 -2 -2 -3 -1 -2 -2 -3 -1 -2 -2 -2 -2 -3 -1 -2 
-2 -2 -2 -3 -1 -2 -2 -2 -2 -2 -2 -3 -2 -2 -1 -2 
-2 -2 -2 -2 -2 -3 -2 -2 -2 -2 -2 -2 -2 -2 -2 -2 
-2 -2 -2 -2 -2 -2 -2 -2 -3 -2 -2 -1 -2 -2 -2 -2 
-2 -2 -3 -2 -2 -2 -2 -1 -2 -2 -3 -2 -2 -1 -2 -2 
-3 -2 -2 -1 -2 -2 1647 2954 100 MP stroke
-3 -2 -2 -1 -3 -2 -2 -1 -3 -1 -2 -2 -3 -1 -2 -2 
-3 -1 -2 -1 -3 -2 -2 -1 -3 -1 -2 -1 -3 -2 -3 -1 
-2 -1 -3 -1 -3 -1 -2 -1 -3 -1 -3 -1 -2 -1 -3 -1 
-3 -1 -2 -1 -3 -1 -3 -1 -3 -1 -2 0 -3 -1 -3 -1 
-3 0 -3 -1 -2 -1 -3 0 -3 -1 -3 -1 -3 0 -2 -1 
-3 0 -3 0 -3 -1 -3 0 -3 -1 -2 0 -3 0 -3 0 
-3 -1 -3 0 -3 0 -3 0 -3 0 -2 0 -3 0 -3 0 
-3 0 -3 0 -3 0 -3 0 -3 0 -2 0 -3 0 -3 1 
-3 0 -3 0 -3 0 -3 1 -3 0 -3 0 -3 1 -2 0 
-3 1 -3 0 -3 1 -3 1 -3 0 -3 1 -3 0 -3 1 
-3 1 -2 1 -3 0 -3 1 -3 1 -3 1 -3 1 -3 1 
-3 1 -3 1 -2 1 -3 1 -3 1 -3 1 -3 1 -3 1 
-2 2 -3 1 -3 1 1923 2972 100 MP stroke
-3 1 -3 2 -2 1 -3 1 -3 2 -3 1 -2 2 -3 1 
-3 2 -3 1 -2 2 -3 1 -3 2 -2 2 -3 1 -3 2 
-2 2 -3 2 -3 1 -2 2 -3 2 -2 2 -3 2 -2 2 
-3 2 -3 2 -2 2 -3 2 -2 2 -2 2 -3 2 -2 2 
-3 2 -2 3 -2 2 -3 2 -2 2 -3 3 -2 2 -2 2 
-2 3 -3 2 -2 2 -2 3 -2 2 -2 3 -3 2 -2 3 
-2 2 -2 3 -2 3 -2 2 -2 3 -2 3 -2 2 -2 3 
-2 3 -2 2 -2 3 -2 3 -2 3 -2 3 -1 2 -2 3 
-2 3 -2 3 -2 3 -1 3 -2 3 -2 3 -1 3 -2 3 
-1 3 -2 3 -2 3 -1 3 -2 3 -1 4 -2 3 -1 3 
-1 3 -2 3 -1 3 -1 4 -2 3 -1 3 -1 3 -1 4 
-2 3 -1 3 -1 4 -1 3 -1 3 -1 4 -1 3 -1 4 
-1 3 -1 3 -1 4 2123 2724 100 MP stroke
-1 3 -1 4 -1 3 -1 4 0 3 -1 4 -1 3 -1 4 
0 3 -1 4 0 3 -1 4 -1 4 0 3 -1 4 0 3 
-1 4 0 7 -1 4 0 7 -1 4 0 15 -1 3 0 30 
1 4 0 15 1 4 0 7 1 4 0 4 1 4 0 3 
1 4 0 4 1 4 0 3 1 4 1 4 0 4 1 3 
1 4 0 4 1 4 1 4 1 3 1 4 1 4 1 4 
1 3 1 4 1 4 1 4 1 3 1 4 1 4 1 4 
2 3 1 4 1 4 1 3 2 4 1 4 2 4 1 3 
1 4 2 4 1 3 2 4 2 4 1 3 2 4 1 4 
2 3 2 4 2 3 1 4 2 4 2 3 2 4 2 3 
2 4 2 3 2 4 2 3 2 4 2 3 2 4 2 3 
2 4 2 3 2 4 3 3 2 4 2 3 2 4 3 3 
2 3 3 4 2 3 2035 2305 100 MP stroke
2 3 3 4 2 3 3 3 2 4 3 3 3 3 2 3 
3 3 3 4 2 3 3 3 3 3 3 3 2 3 3 4 
3 3 3 3 3 3 3 3 3 3 3 3 3 3 3 3 
3 3 3 3 3 3 3 3 3 2 4 3 3 3 3 3 
3 3 3 3 4 2 3 3 3 3 4 3 3 2 4 3 
3 3 3 2 4 3 3 2 4 3 3 2 4 3 4 2 
3 3 4 2 3 3 4 2 4 3 3 2 4 2 4 3 
4 2 3 2 4 3 4 2 4 2 4 2 4 2 4 2 
3 3 4 2 4 2 4 2 4 2 4 2 4 2 4 2 
4 2 4 2 5 1 4 2 4 2 4 2 4 2 4 1 
4 2 5 2 4 1 4 2 4 2 5 1 4 2 4 1 
4 2 5 1 4 2 4 1 5 2 4 1 5 1 4 2 
4 1 5 1 4 2 1683 2067 100 MP stroke
5 1 4 1 5 1 4 1 5 1 4 2 5 1 4 1 
5 1 4 1 5 1 5 0 4 1 5 1 4 1 5 1 
5 1 4 0 5 1 5 1 4 0 5 1 5 1 4 0 
5 1 5 0 4 1 5 0 5 1 5 0 4 0 5 1 
5 0 5 0 5 1 4 0 5 0 5 0 5 0 5 1 
4 0 5 0 5 0 5 0 5 0 4 0 5 0 5 0 
5 0 5 0 5 1 5 0 4 0 5 0 5 0 5 0 
5 0 5 0 5 0 5 0 1399 2039 61 MP stroke
-3 -1 -3 -1 -2 -1 -3 -1 -2 -1 -3 -1 -3 -1 -2 -2 
-3 -1 -2 -1 -3 -1 -2 -2 -3 -1 -2 -1 -3 -2 -2 -1 
-3 -2 -2 -1 -3 -2 -2 -1 -2 -2 -3 -1 -2 -2 -2 -1 
-3 -2 -2 -2 -2 -1 -3 -2 -2 -2 -2 -2 -2 -1 -3 -2 
-2 -2 -2 -2 -2 -2 -2 -2 -2 -1 -2 -2 -2 -2 -2 -2 
-2 -2 -2 -2 -2 -2 -2 -2 -2 -2 -2 -3 -2 -2 -2 -2 
-2 -2 -2 -2 -2 -2 -1 -3 -2 -2 -2 -2 -2 -2 -1 -3 
-2 -2 -2 -2 -1 -3 -2 -2 -1 -2 -2 -3 -2 -2 -1 -2 
-2 -3 -1 -2 -1 -3 -2 -2 -1 -3 -2 -2 -1 -3 -1 -2 
-1 -3 -2 -2 -1 -3 -1 -2 -1 -3 -1 -3 -2 -2 -1 -3 
-1 -3 -1 -2 -1 -3 -1 -2 -1 -3 -1 -3 -1 -3 0 -2 
-1 -3 -1 -3 -1 -2 -1 -3 0 -3 -1 -3 -1 -2 0 -3 
-1 -3 -1 -3 0 -3 2080 1294 100 MP stroke
-1 -2 0 -3 -1 -3 0 -3 -1 -3 0 -5 -1 -3 0 -8 
-1 -3 0 -43 1 -3 0 -5 1 -3 0 -6 1 -3 0 -2 
1 -3 0 -3 1 -3 0 -3 1 -2 1 -3 0 -3 1 -3 
1 -2 0 -3 1 -3 1 -3 1 -2 1 -3 0 -3 1 -3 
1 -2 1 -3 1 -3 1 -2 1 -3 1 -3 1 -2 1 -3 
2 -2 1 -3 1 -3 1 -2 1 -3 2 -2 1 -3 1 -2 
2 -3 1 -2 1 -3 2 -2 1 -3 2 -2 1 -2 2 -3 
1 -2 2 -3 2 -2 1 -2 2 -3 2 -2 1 -2 2 -2 
2 -3 1 -2 2 -2 2 -2 2 -2 2 -3 2 -2 2 -2 
1 -2 2 -2 2 -2 2 -2 2 -2 2 -2 2 -2 2 -2 
3 -2 2 -2 2 -2 2 -2 2 -2 2 -1 2 -2 3 -2 
2 -2 2 -1 2 -2 3 -2 2 -1 2 -2 3 -2 2 -1 
2 -2 3 -1 2 -2 1955 1583 100 MP stroke
3 -1 2 -2 3 -1 2 -2 2 -1 3 -2 2 -1 3 -1 
2 -1 3 -2 3 -1 2 -1 3 -1 2 -2 3 -1 3 -1 
2 -1 3 -1 2 -1 3 -1 3 -1 3 -1 2 -1 3 -1 
3 -1 2 0 3 -1 3 -1 3 -1 2 0 3 -1 3 -1 
3 0 2 -1 3 -1 3 0 3 -1 3 0 2 -1 3 0 
3 0 3 -1 3 0 2 -1 3 0 3 0 3 0 3 -1 
3 0 2 0 3 0 3 0 3 0 3 0 3 0 2 0 
3 0 3 0 3 0 3 0 3 0 2 1 3 0 3 0 
3 0 3 1 3 0 2 0 3 1 3 0 3 1 3 0 
2 1 3 0 3 1 3 1 3 0 2 1 3 1 3 0 
3 1 2 1 3 1 3 0 2 1 3 1 3 1 3 1 
2 1 3 1 3 1 2 1 3 1 2 1 3 1 3 1 
2 2 3 1 2 1 1686 1597 100 MP stroke
3 1 2 2 3 1 2 1 3 2 2 1 3 1 2 2 
3 1 2 2 3 1 2 2 2 1 3 2 2 2 2 1 
3 2 2 2 2 1 3 2 2 2 2 2 2 1 2 2 
3 2 2 2 2 2 2 2 2 2 2 2 2 2 2 2 
2 2 2 2 2 2 2 2 2 2 2 2 2 2 2 2 
1 2 2 3 2 2 2 2 2 2 1 3 2 2 2 2 
1 2 2 3 2 2 1 2 2 3 1 2 2 3 1 2 
2 3 1 2 1 2 2 3 1 2 2 3 1 2 1 3 
1 3 2 2 1 3 1 2 1 3 1 3 1 2 1 3 
1 2 1 3 1 3 1 2 1 3 1 3 1 3 1 2 
1 3 1 3 0 2 1 3 1 3 0 3 1 2 1 3 
0 3 1 3 0 3 1 2 0 3 1 3 0 3 1 3 
0 5 1 3 0 9 1531 1367 100 MP stroke
1 2 0 34 -1 3 0 9 -1 3 0 5 -1 3 0 6 
-1 3 0 2 -1 3 -1 3 0 3 -1 2 0 3 -1 3 
-1 3 -1 2 0 3 -1 3 -1 3 -1 2 -1 3 -1 3 
0 2 -1 3 -1 3 -1 2 -1 3 -1 3 -2 2 -1 3 
-1 3 -1 2 -1 3 -1 2 -2 3 -1 2 -1 3 -2 2 
-1 3 -1 2 -2 3 -1 2 -2 3 -1 2 -2 3 -1 2 
-2 2 -1 3 -2 2 -1 3 -2 2 -2 2 -1 2 -2 3 
-2 2 -2 2 -1 2 -2 3 -2 2 -2 2 -2 2 -2 2 
-2 2 -2 2 -2 2 -2 2 -2 2 -2 2 -2 2 -2 2 
-2 2 -2 2 -2 2 -2 2 -2 2 -2 2 -3 1 -2 2 
-2 2 -2 2 -3 1 -2 2 -2 2 -3 1 -2 2 -2 2 
-3 1 -2 2 -2 1 -3 2 -2 1 -3 2 -2 1 -3 1 
-2 2 -3 1 -2 1 1680 1101 100 MP stroke
-3 2 -2 1 -3 1 -2 2 -3 1 -3 1 -2 1 -3 1 
-2 1 -3 1 -3 1 -2 1 -3 1 -3 1 -2 1 -3 1 
-3 1 -2 1 -3 0 -3 1 -3 1 -2 1 -3 0 -3 1 
-3 1 -3 0 -2 1 -3 0 -3 1 -3 0 -2 1 -3 0 
-3 1 -3 0 -3 1 -3 0 -2 0 -3 0 -3 1 -3 0 
-3 0 -3 0 -2 0 -3 0 -3 0 -3 0 -3 0 -3 0 
-2 0 -3 0 -3 0 -3 0 -3 0 -3 0 -3 -1 -3 0 
-2 0 -3 0 -3 -1 -3 0 -3 -1 -3 0 -3 0 -3 -1 
-2 0 -3 -1 -3 -1 -3 0 -3 -1 -3 -1 -3 0 -3 -1 
-2 -1 -3 -1 -3 0 -3 -1 -3 -1 -3 -1 -3 -1 -2 -1 
-3 -1 -3 -1 -3 -1 -3 -1 -3 -1 -2 -1 -3 -1 -3 -2 
-3 -1 -3 -1 -2 -1 -3 -2 -3 -1 -3 -1 -2 -2 -3 -1 
-3 -2 -3 -1 -2 -2 1956 1110 100 MP stroke
-3 -1 -3 -2 -2 -1 -3 -2 -3 -2 -2 -1 -3 -2 -3 -2 
-2 -2 -3 -1 -2 -2 -3 -2 -2 -2 -3 -2 -3 -2 -2 -2 
-3 -2 -2 -2 -2 -2 -3 -2 -2 -2 -3 -2 -2 -2 -3 -2 
-2 -2 -2 -2 -3 -3 -2 -2 -2 -2 -3 -2 -2 -3 -2 -2 
-2 -2 -3 -3 -2 -2 -2 -3 -2 -2 -2 -3 -3 -2 -2 -3 
-2 -2 -2 -3 -2 -2 -2 -3 -2 -3 -2 -2 -2 -3 -2 -3 
-2 -2 -2 -3 -2 -3 -1 -3 -2 -2 -2 -3 -2 -3 -2 -3 
-2 -3 -1 -3 -2 -3 -2 -3 -1 -3 -2 -3 -2 -3 -1 -3 
-2 -3 -1 -3 -2 -3 -1 -3 -2 -3 -1 -3 -2 -3 -1 -3 
-2 -3 -1 -4 -1 -3 -2 -3 -1 -3 -1 -4 -1 -3 -2 -3 
-1 -3 -1 -4 -1 -3 -1 -3 -1 -4 -1 -3 -1 -3 -1 -4 
-1 -3 -1 -4 -1 -3 -1 -3 -1 -4 -1 -3 -1 -4 0 -3 
-1 -4 -1 -3 -1 -4 2139 1374 100 MP stroke
0 -3 -1 -4 -1 -3 0 -4 -1 -3 0 -4 -1 -4 0 -3 
-1 -4 0 -7 -1 -4 0 -3 -1 -4 0 -15 -1 -3 0 -41 
1 -4 0 -11 1 -4 0 -7 1 -4 0 -4 1 -3 0 -4 
1 -4 0 -4 1 -3 0 -4 1 -4 1 -4 0 -4 1 -3 
1 -4 0 -4 1 -4 1 -3 1 -4 1 -4 1 -4 1 -3 
1 -4 1 -4 1 -4 1 -3 1 -4 1 -4 1 -3 1 -4 
2 -4 1 -4 1 -3 1 -4 2 -4 1 -3 1 -4 2 -4 
1 -3 2 -4 1 -4 2 -3 1 -4 2 -4 2 -3 1 -4 
2 -4 2 -3 1 -4 2 -3 2 -4 2 -4 2 -3 1 -4 
2 -3 2 -4 2 -3 2 -4 2 -3 2 -4 2 -3 2 -4 
2 -3 3 -4 2 -3 2 -4 2 -3 2 -3 3 -4 2 -3 
2 -4 3 -3 2 -3 3 -4 2 -3 2 -3 3 -4 3 -3 
2 -3 3 -3 2 -4 2025 1794 100 MP stroke
3 -3 3 -3 2 -3 3 -3 3 -4 2 -3 3 -3 3 -3 
3 -3 3 -3 3 -3 2 -3 3 -3 3 -3 3 -3 3 -3 
3 -3 3 -3 3 -3 3 -3 4 -3 3 -3 3 -3 3 -3 
3 -2 4 -3 3 -3 3 -3 3 -2 4 -3 3 -3 3 -3 
4 -2 3 -3 4 -3 3 -2 4 -3 3 -2 4 -3 3 -2 
4 -3 3 -2 4 -3 3 -2 4 -3 4 -2 3 -3 4 -2 
4 -2 4 -3 3 -2 4 -2 4 -2 4 -3 4 -2 3 -2 
4 -2 4 -2 4 -2 4 -2 4 -3 4 -2 4 -2 4 -2 
4 -2 4 -1 4 -2 4 -2 4 -2 4 -2 4 -2 5 -2 
4 -1 4 -2 4 -2 4 -2 4 -1 5 -2 4 -2 4 -1 
4 -2 5 -1 4 -2 4 -1 5 -2 4 -1 4 -2 5 -1 
4 -1 5 -2 4 -1 4 -1 5 -1 4 -2 5 -1 4 -1 
5 -1 4 -1 5 -1 1660 2017 100 MP stroke
4 -2 5 -1 4 -1 5 -1 4 -1 5 0 5 -1 4 -1 
5 -1 4 -1 5 -1 5 0 4 -1 5 -1 5 -1 4 0 
5 -1 5 0 4 -1 5 -1 5 0 4 -1 5 0 5 0 
5 -1 4 0 5 -1 5 0 5 0 5 0 4 -1 5 0 
5 0 5 0 5 0 4 -1 5 0 5 0 5 0 5 0 
4 0 5 0 5 0 5 0 5 0 5 0 5 0 4 0 
5 0 5 0 5 0 5 0 5 0 5 0 5 0 1399 2039 56 MP stroke
/c8 { 0.000000 1.000000 0.000000 sr} bdef
c8
0 -10 -1 -1 0 -4 -1 -1 0 -3 -1 -1 0 -2 -1 -1 
0 -1 -1 -1 0 -2 -1 -1 0 -1 -1 -1 0 -1 -1 -1 
0 -1 -2 -2 0 -1 -2 -2 -1 -1 0 -1 -2 -2 -1 -1 
-1 -1 -1 -1 -1 -1 -1 -1 -1 0 -1 -1 -1 -1 -1 -1 
-1 -1 -1 0 -1 -1 -1 -1 -1 0 -1 -1 -1 -1 -1 0 
-1 -1 -1 0 -1 -1 -1 0 -1 0 -1 -1 -1 0 -1 -1 
-1 0 -1 0 -1 -1 -1 0 -1 0 -1 0 -1 -1 -1 0 
-1 0 -1 0 -1 -1 -1 0 -1 0 -1 0 -1 0 -1 0 
-1 0 -1 0 -1 0 -1 0 -1 0 -1 0 -1 0 -1 0 
-1 0 -1 0 -1 0 -1 0 -1 0 -1 0 -1 1 -1 0 
-1 0 -1 0 -1 0 -1 0 -1 1 -1 0 -1 0 -1 1 
-1 0 -1 0 -1 0 -1 1 -1 0 -1 0 -1 1 -1 0 
-1 1 -1 0 -1 0 2964 3242 100 MP stroke
-1 1 -1 0 -1 1 -1 0 -1 1 -1 0 -1 1 -1 0 
-1 1 -1 0 -1 1 -1 1 -1 0 -1 0 -1 1 -1 1 
-1 1 -1 0 -1 1 -1 0 -1 1 -1 1 -1 1 -1 0 
-1 1 -1 1 -1 1 -1 0 -1 1 -1 1 -1 1 -1 1 
-1 0 -1 1 0 1 -1 1 -1 0 -1 1 -1 1 -1 1 
-1 1 -1 1 -1 1 0 1 -1 1 -1 0 -1 1 -1 1 
0 1 -1 1 -1 1 -1 1 -1 1 -1 1 -1 1 0 1 
-1 1 -1 1 -1 1 0 1 -1 1 -1 1 -1 1 0 1 
-1 1 -1 1 -1 1 0 1 -1 1 -1 1 0 1 -1 1 
-1 1 -1 1 0 2 -1 1 -1 1 0 1 -1 1 -1 1 
0 1 -1 1 -1 2 0 1 -1 1 -1 1 0 1 -1 2 
0 1 -1 1 -1 1 0 1 -1 2 0 1 -1 1 -1 1 
0 2 -1 1 0 1 3045 3152 100 MP stroke
-1 2 -1 1 0 1 -1 2 0 1 -1 1 0 2 -1 1 
0 1 -1 2 0 1 -1 1 0 2 -1 1 0 2 -1 1 
0 1 -1 2 0 1 -1 2 0 1 -1 2 0 1 -1 2 
0 1 -1 1 0 3 -1 2 0 1 -1 2 0 3 -1 2 
0 3 -1 1 0 2 -1 1 0 3 -1 2 0 5 -1 1 
0 4 -1 1 0 5 -1 2 0 5 -1 2 0 6 -1 2 
0 9 -1 1 0 16 -1 2 0 28 1 2 0 17 1 2 
0 9 1 2 0 8 1 2 0 6 1 2 0 4 1 2 
0 4 1 2 0 4 1 2 0 4 1 2 0 4 1 2 
0 2 1 2 0 4 1 2 0 2 1 2 0 2 1 2 
0 3 1 2 0 2 1 2 0 2 1 2 0 2 1 2 
0 2 1 2 1 2 0 2 1 3 0 2 1 2 1 2 
0 2 1 2 1 2 3047 2864 100 MP stroke
0 2 1 2 0 3 1 2 1 2 1 2 0 2 1 2 
1 2 0 2 1 3 1 2 1 2 0 2 1 2 1 2 
1 2 1 3 0 2 1 2 1 2 1 2 1 2 1 3 
1 2 0 2 1 2 1 2 1 2 1 3 1 2 1 2 
1 2 1 2 1 2 1 3 1 2 1 2 1 2 1 2 
1 2 1 3 1 2 1 2 1 2 1 2 1 3 1 2 
1 2 1 2 1 2 2 3 1 2 1 2 1 2 1 2 
1 3 2 2 1 2 1 2 1 2 1 3 2 2 1 2 
1 2 1 2 2 3 1 2 1 2 1 2 2 2 1 3 
1 2 2 2 1 2 1 2 2 3 1 2 1 2 2 2 
1 2 2 3 1 2 1 2 2 2 1 2 2 3 1 2 
2 2 1 2 2 2 1 3 2 2 1 2 2 2 1 2 
2 3 1 2 2 2 2938 2648 100 MP stroke
1 2 2 2 1 3 2 2 2 2 1 2 2 2 2 3 
1 2 2 2 1 2 2 2 2 3 2 2 1 2 2 2 
2 2 1 3 2 2 2 2 2 2 1 2 2 2 2 3 
2 2 1 2 2 2 2 2 2 3 2 2 2 2 1 2 
2 2 2 2 2 3 2 2 2 2 2 2 2 2 2 2 
2 2 2 3 1 2 2 2 2 2 2 2 2 2 2 3 
2 2 2 2 2 2 2 2 2 2 3 2 2 2 2 3 
2 2 2 2 2 2 2 2 2 2 2 2 2 2 3 3 
2 2 2 2 2 2 2 2 2 2 3 2 2 2 2 2 
2 2 3 3 2 2 2 2 2 2 3 2 2 2 2 2 
2 2 3 2 2 2 2 2 3 2 2 2 2 2 3 2 
2 3 3 2 2 2 2 2 3 2 2 2 3 2 2 2 
2 2 3 2 2 2 2739 2437 100 MP stroke
3 2 2 2 3 2 2 2 3 2 2 2 3 2 2 2 
3 2 2 2 3 2 2 2 3 2 3 2 2 2 3 2 
2 2 3 2 3 2 2 2 3 2 3 2 2 1 3 2 
3 2 2 2 3 2 3 2 2 2 3 2 3 2 3 2 
2 2 3 2 3 2 3 1 2 2 3 2 3 2 3 2 
3 2 2 2 3 2 3 2 3 1 3 2 3 2 2 2 
3 2 3 2 3 2 3 1 3 2 3 2 3 2 3 2 
3 1 3 2 3 2 3 2 3 2 3 1 2 2 4 2 
3 2 3 2 3 1 3 2 3 2 3 2 3 1 3 2 
3 2 3 2 3 1 3 2 3 2 3 2 4 1 3 2 
3 2 3 2 3 1 3 2 3 2 4 1 3 2 3 2 
3 1 3 2 4 2 3 1 3 2 3 2 4 1 3 2 
3 2 3 1 4 2 2453 2255 100 MP stroke
3 1 3 2 4 2 3 1 3 2 4 1 3 2 3 2 
4 1 3 2 3 1 4 2 3 2 4 1 3 2 3 1 
4 2 3 1 4 2 3 1 4 2 3 1 3 2 4 1 
3 2 4 1 3 2 4 1 3 2 4 1 3 2 4 1 
4 2 3 1 4 2 3 1 4 1 3 2 4 1 4 2 
3 1 4 2 3 1 4 1 4 2 3 1 4 1 4 2 
3 1 4 2 4 1 3 1 4 2 4 1 3 1 4 2 
4 1 4 1 3 2 4 1 4 1 3 2 4 1 4 1 
4 1 4 2 3 1 4 1 4 1 4 2 4 1 3 1 
4 1 4 2 4 1 4 1 4 1 4 1 3 2 4 1 
4 1 4 1 4 1 4 1 4 2 4 1 4 1 4 1 
4 1 4 1 3 1 4 2 4 1 4 1 4 1 4 1 
4 1 4 1 4 1 2091 2121 100 MP stroke
4 1 4 1 4 1 5 1 4 1 4 1 4 1 4 1 
4 1 4 1 4 1 4 1 4 1 4 1 4 1 5 1 
4 1 4 1 4 1 4 1 4 1 4 1 5 1 4 1 
4 1 4 1 4 0 5 1 4 1 4 1 4 1 4 1 
5 1 4 1 4 0 4 1 5 1 4 1 4 1 4 0 
5 1 4 1 4 1 5 1 4 0 4 1 4 1 5 1 
4 0 4 1 5 1 4 1 5 0 4 1 4 1 5 0 
4 1 4 1 5 0 4 1 5 1 4 0 4 1 5 1 
4 0 5 1 4 0 5 1 4 1 4 0 5 1 4 0 
5 1 4 1 5 0 4 1 5 0 4 1 5 0 4 1 
5 0 4 1 5 0 5 1 4 0 5 1 4 0 5 1 
4 0 5 1 4 0 5 0 5 1 4 0 5 1 4 0 
5 0 5 1 4 0 1662 2049 100 MP stroke
5 1 5 0 4 0 5 1 4 0 5 0 5 1 4 0 
5 0 5 1 5 0 4 0 5 1 5 0 4 0 5 0 
5 1 4 0 5 0 5 0 5 0 4 1 5 0 5 0 
5 0 4 0 5 1 5 0 5 0 5 0 4 0 5 0 
5 1 5 0 5 0 4 0 5 0 5 0 5 0 5 0 
4 0 5 0 5 0 5 0 5 0 5 1 5 0 4 0 
5 0 5 0 5 0 5 0 5 0 5 0 5 0 1399 2039 56 MP stroke
6 w
gr

c8

end %%Color Dict

eplot
%%EndObject

epage
end

showpage

%%Trailer
%%EOF
